{
    "KPlugin": {
        "Authors": [
            {
                "Email": "toojays@toojays.net",
                "Name": "John Steele Scott",
                "Name[bg]": "John Steele Scott",
                "Name[ca@valencia]": "John Steele Scott",
                "Name[ca]": "John Steele Scott",
                "Name[cs]": "John Steele Scott",
                "Name[da]": "John Steele Scott",
                "Name[de]": "John Steele Scott",
                "Name[el]": "John Steele Scott",
                "Name[en_GB]": "John Steele Scott",
                "Name[es]": "John Steele Scott",
                "Name[eu]": "John Steele Scott",
                "Name[fi]": "John Steele Scott",
                "Name[fr]": "John Steele Scott",
                "Name[hu]": "John Steele Scott",
                "Name[ia]": "John Steele Scott",
                "Name[it]": "John Steele Scott",
                "Name[ko]": "John Steele Scott",
                "Name[nl]": "John Steele Scott",
                "Name[pl]": "John Steele Scott",
                "Name[pt]": "John Steele Scott",
                "Name[pt_BR]": "John Steele Scott",
                "Name[ru]": "John Steele Scott",
                "Name[sk]": "John Steele Scott",
                "Name[sl]": "John Steele Scott",
                "Name[sv]": "John Steele Scott",
                "Name[tr]": "John Steele Scott",
                "Name[uk]": "John Steele Scott",
                "Name[x-test]": "xxJohn Steele Scottxx",
                "Name[zh_CN]": "John Steele Scott"
            }
        ],
        "Category": "AudioDecoder",
        "Description": "Decoding module to decode FLAC files",
        "Description[ar]": "وحدة فكّ ترميز لفكّ ترميز ملفّات FLAC",
        "Description[bg]": "Декодер за FLAC файлове",
        "Description[bs]": "Modul dekodiranja za dekodiranje FLAC datoteke",
        "Description[ca@valencia]": "Mòdul de descodificació per a descodificar fitxers FLAC",
        "Description[ca]": "Mòdul de descodificació per a descodificar fitxers FLAC",
        "Description[cs]": "Modul pro dekódování souborů FLAC",
        "Description[csb]": "Mòdul dekòdërëjący lopczi FLAC",
        "Description[da]": "Dekodermodul til dekodning af FLAC-filer",
        "Description[de]": "Dekodierungsmodul für FLAC-Dateien",
        "Description[el]": "Άρθρωμα αποκωδικοποίησης αρχείων FLAC",
        "Description[en_GB]": "Decoding module to decode FLAC files",
        "Description[es]": "Descodificando módulo para descodificar archivos FLAC",
        "Description[et]": "FLAC-failide dekodeerimise moodul",
        "Description[eu]": "FLAC fitxategiak deskodetzeko modulua",
        "Description[fi]": "FLAC-tiedostojen purkumoduuli",
        "Description[fr]": "Module de décodage pour des fichiers au format « FLAC »",
        "Description[ga]": "Modúl díchódaithe a dhíchódaíonn comhaid FLAC",
        "Description[gl]": "Módulo de descodificación de ficheiros FLAC",
        "Description[he]": "מודול המפענח קבצי FLAC",
        "Description[hne]": "फ्लेक फाइल ल डिकोड करे बर डिकोडिंग माड्यूल",
        "Description[hr]": "Dekoderski modul za dekodiranje FLAC datoteka",
        "Description[hu]": "Dekódolómodul FLAC-fájlok dekódolásához",
        "Description[ia]": "Modulo decifrante per decifrar files FLAC",
        "Description[id]": "Modul decoding untuk mendekode file-file FLAC",
        "Description[it]": "Decodifica modulare per i file FLAC",
        "Description[ja]": "FLAC ファイルをデコードするモジュール",
        "Description[kk]": "FLAC файлдарының декодер модулі",
        "Description[km]": "ម៉ូឌុល​ឌិកូដ សម្រាប់​ឌិកូដ​ឯកសារ FLAC",
        "Description[ko]": "FLAC 파일 디코딩 모듈",
        "Description[lt]": "Dekodavimo modulis dekoduoti FLAC failus",
        "Description[lv]": "Dekodēšanas modulis FLAC failiem",
        "Description[mr]": "FLAC फाईल्स डीकोड करण्याकरिता डीकोडिंग विभाग",
        "Description[nb]": "Modul som dekoder FLAC-filer",
        "Description[nds]": "Dekodeermoduul för \"FLAC\"-Dateien",
        "Description[nl]": "Module voor het  decoderenvan FLAC-bestanden",
        "Description[nn]": "Modul for dekoding av FLAC-filer",
        "Description[pl]": "Moduł dekodujący pliki FLAC",
        "Description[pt]": "Módulo de descodificação de ficheiros FLAC",
        "Description[pt_BR]": "Módulo de decodificação de arquivos FLAC",
        "Description[ro]": "Modul de decodare pentru decodarea fișierelor FLAC",
        "Description[ru]": "Модуль декодирования файлов FLAC",
        "Description[sk]": "Modul pre dekódovanie súborov FLAC",
        "Description[sl]": "Dekodirni modul za dekodiranje datotek FLAC",
        "Description[sr@ijekavian]": "Модул за декодирање ФЛАЦ фајлова",
        "Description[sr@ijekavianlatin]": "Modul za dekodiranje FLAC fajlova",
        "Description[sr@latin]": "Modul za dekodiranje FLAC fajlova",
        "Description[sr]": "Модул за декодирање ФЛАЦ фајлова",
        "Description[sv]": "Avkodningsmodul för att avkoda FLAC-filer",
        "Description[th]": "มอดูลถอดรหัสแฟ้มประเภท FLAC",
        "Description[tr]": "FLAC dosyalarının kodlarını çözmek için çözücü modül",
        "Description[uk]": "Модуль декодування для файлів FLAC",
        "Description[x-test]": "xxDecoding module to decode FLAC filesxx",
        "Description[zh_CN]": "用于解码 FLAC 文件的解码模块",
        "Description[zh_TW]": "解碼 FLAC 檔案格式的模組",
        "EnabledByDefault": true,
        "Icon": "preferences-plugin",
        "Id": "k3bflacdecoder",
        "License": "GPL",
        "Name": "K3b FLAC Decoder",
        "Name[bg]": "FLAC декодер за K3b",
        "Name[bs]": "K3b FLAC Dekoder",
        "Name[ca@valencia]": "Descodificador FLAC de K3b",
        "Name[ca]": "Descodificador FLAC del K3b",
        "Name[cs]": "FLAC dekodér K3b",
        "Name[csb]": "Dekòder FLAC dlô K3b",
        "Name[da]": "K3b FLAC-dekoder",
        "Name[de]": "FLAC-Dekodierer",
        "Name[el]": "Αποκωδικοποιητής FLAC του K3b",
        "Name[en_GB]": "K3b FLAC Decoder",
        "Name[es]": "Descodificador FLAC de K3b",
        "Name[et]": "K3b FLAC dekodeerija",
        "Name[eu]": "K3b FLAC deskodetzailea",
        "Name[fi]": "K3b:n FLAC-purkaja",
        "Name[fr]": "Décodeur « Flac » pour K3b",
        "Name[ga]": "Díchódóir FLAC K3b",
        "Name[gl]": "Descodificador de FLAC para K3b",
        "Name[he]": "מפענח FLAC של K3b",
        "Name[hne]": "के3बी फ्लेक डिकोडर",
        "Name[hr]": "K3b-ov dekoder FLAC-a",
        "Name[hu]": "FLAC-dekódoló a K3b-hez",
        "Name[ia]": "Decifrator FLAC de K3b",
        "Name[id]": "Dekoder FLAC K3b",
        "Name[is]": "K3b FLAC afkóðari",
        "Name[it]": "Decodificatore FLAC di K3b",
        "Name[ja]": "K3b FLAC デコーダ",
        "Name[kk]": "K3b FLAC декодері",
        "Name[km]": "ឌិកូឌ័រ​ FLAC របស់ K3b",
        "Name[ko]": "K3b FLAC 디코더",
        "Name[lt]": "K3b FLAC dekoderis",
        "Name[lv]": "K3b FLAC dekoderis",
        "Name[mr]": "के3बी FLAC डीकोडर",
        "Name[nb]": "K3b Flac-dekoder",
        "Name[nds]": "FLAC-Dekoderer för K3b",
        "Name[nl]": "K3b FLAC-decoder",
        "Name[nn]": "FLAC-dekodar for K3b",
        "Name[pa]": "K3b FLAC ਡੀਕੋਡਰ",
        "Name[pl]": "Dekoder FLAC dla K3b",
        "Name[pt]": "Descodificador de FLAC do K3b",
        "Name[pt_BR]": "Decodificador FLAC do K3b",
        "Name[ro]": "Decodor K3b FLAC",
        "Name[ru]": "Декодер FLAC",
        "Name[sk]": "FLAC dekodér pre K3b",
        "Name[sl]": "K3b-jev dekodirnik FLAC",
        "Name[sq]": "K3b FLAC Dekoder",
        "Name[sr@ijekavian]": "ФЛАЦ декодер за К3б",
        "Name[sr@ijekavianlatin]": "FLAC dekoder za K3b",
        "Name[sr@latin]": "FLAC dekoder za K3b",
        "Name[sr]": "ФЛАЦ декодер за К3б",
        "Name[sv]": "K3b FLAC-avkodare",
        "Name[th]": "K3b - ตัวถอดรหัส FLAC",
        "Name[tr]": "K3b FLAC Çözücüsü",
        "Name[uk]": "K3b декодувальник FLAC",
        "Name[x-test]": "xxK3b FLAC Decoderxx",
        "Name[zh_CN]": "K3b FLAC 解码器",
        "Name[zh_TW]": "K3b FLAC 解碼器",
        "Version": "3.0"
    }
}
